{
    "registration_missing_fields": "There are missing fields: ",
    "register_success": "User Successfuly Registered! Email sent for confirmation!",
    "register_error": "There was a problem during user registration.",
    "register_registered_email": "Email already registered!",
    "invalid_data_format": "Invalid data type: ",
    "error_constraint": "Problem with Business Constraints.",

    "invalid_credentials": "Invalid Credentials! Please, try again!",
    "login_success": "Welcome!",

    "forget_password_email_sent": "Message have been sent to your email for confirmation.",
    "forget_password_email_not_registered": "Email not registered.",

    "new_password_mismatch": "Passwords don't match",
    "new_password_success": "Password changed!",

    "unknown": "Unknown error."
}
